{
  "item": [
    {
      "title": "Course Management",
      "icon": "local_library",
      "subLinks": [
        {
          "text": "หลักสูตร",
          "path": "/"
        },
        {
          "text": "สร้างหลักสูตร",
          "path": "/create-course"
        }
      ]
    }
  ]
}